<svg xmlns="http://www.w3.org/2000/svg" width="57.336" height="37.564" viewBox="0 0 57.336 37.564">
  <g id="pakistan" transform="translate(0)">
    <path id="Path_25970" data-name="Path 25970" d="M173.933,125.841H132.414V88.277h41.519a.989.989,0,0,1,.989.989v35.587A.989.989,0,0,1,173.933,125.841Z" transform="translate(-117.585 -88.277)" fill="#629107"/>
    <g id="Group_1513" data-name="Group 1513" transform="translate(0)">
      <path id="Path_25971" data-name="Path 25971" d="M14.828,125.84H.989A.989.989,0,0,1,0,124.851V89.265a.989.989,0,0,1,.989-.989h13.84Z" transform="translate(0 -88.276)" fill="#f5f5f5"/>
      <path id="Path_25972" data-name="Path 25972" d="M234.28,169.353a11.033,11.033,0,0,1-14.64-16.51l.02-.018a.127.127,0,0,0-.13-.214,12.037,12.037,0,1,0,14.953,16.89.127.127,0,0,0-.2-.154Z" transform="translate(-188.137 -145.399)" fill="#f5f5f5"/>
      <path id="Path_25973" data-name="Path 25973" d="M338.173,171.734l1.581,1.774,2.19-.922a.32.32,0,0,1,.4.456l-1.2,2.052,1.553,1.8a.32.32,0,0,1-.31.522l-2.322-.506-1.23,2.033a.32.32,0,0,1-.593-.134l-.236-2.365L335.7,175.9a.32.32,0,0,1-.056-.6l2.176-.956-.2-2.368A.32.32,0,0,1,338.173,171.734Z" transform="translate(-297.883 -162.292)" fill="#f5f5f5"/>
    </g>
  </g>
</svg>
