<svg id="united-states" xmlns="http://www.w3.org/2000/svg" width="57.335" height="37.564" viewBox="0 0 57.335 37.564">
  <path id="Path_25924" data-name="Path 25924" d="M56.347,125.84H.989A.989.989,0,0,1,0,124.851V89.265a.989.989,0,0,1,.989-.989H56.347a.989.989,0,0,1,.989.989v35.587A.989.989,0,0,1,56.347,125.84Z" transform="translate(0 -88.276)" fill="#f5f5f5"/>
  <g id="Group_1511" data-name="Group 1511" transform="translate(0 0)">
    <path id="Path_25925" data-name="Path 25925" d="M57.335,91.166H0v-1.9a.989.989,0,0,1,.989-.989H56.347a.989.989,0,0,1,.989.989v1.9Z" transform="translate(0 -88.276)" fill="#ff4b55"/>
    <rect id="Rectangle_571" data-name="Rectangle 571" width="57.335" height="2.89" transform="translate(0 11.558)" fill="#ff4b55"/>
    <rect id="Rectangle_572" data-name="Rectangle 572" width="57.335" height="2.89" transform="translate(0 5.779)" fill="#ff4b55"/>
    <path id="Path_25926" data-name="Path 25926" d="M57.335,245.988H.989A.989.989,0,0,1,0,245v-1.9H57.335Z" transform="translate(0 -225.761)" fill="#ff4b55"/>
    <rect id="Rectangle_573" data-name="Rectangle 573" width="57.335" height="2.89" transform="translate(0 28.896)" fill="#ff4b55"/>
    <path id="Path_25927" data-name="Path 25927" d="M56.347,400.811H.989A.989.989,0,0,1,0,399.822v-1.9H57.335v1.9A.989.989,0,0,1,56.347,400.811Z" transform="translate(0 -363.247)" fill="#ff4b55"/>
    <rect id="Rectangle_574" data-name="Rectangle 574" width="57.335" height="2.89" transform="translate(0 23.117)" fill="#ff4b55"/>
  </g>
  <path id="Path_25928" data-name="Path 25928" d="M25.7,88.277H.989A.989.989,0,0,0,0,89.265v18.249a.989.989,0,0,0,.989.989H25.7a.989.989,0,0,0,.989-.989V89.265A.989.989,0,0,0,25.7,88.277Z" transform="translate(0 -88.277)" fill="#41479b"/>
  <g id="Group_1512" data-name="Group 1512" transform="translate(1.596 2.205)">
    <path id="Path_25929" data-name="Path 25929" d="M15.433,108.033l.219.656.692.005a.093.093,0,0,1,.055.168l-.556.411.209.659a.093.093,0,0,1-.143.1l-.563-.4-.563.4a.093.093,0,0,1-.143-.1l.209-.659-.556-.411a.093.093,0,0,1,.055-.168l.692-.005.219-.656A.093.093,0,0,1,15.433,108.033Z" transform="translate(-14.253 -107.969)" fill="#f5f5f5"/>
    <path id="Path_25930" data-name="Path 25930" d="M15.433,138.687l.219.656.692.005a.093.093,0,0,1,.055.168l-.556.411.209.659a.093.093,0,0,1-.143.1l-.563-.4-.563.4a.093.093,0,0,1-.143-.1l.209-.659-.556-.411a.093.093,0,0,1,.055-.168l.692-.005.219-.656A.093.093,0,0,1,15.433,138.687Z" transform="translate(-14.253 -135.191)" fill="#f5f5f5"/>
    <path id="Path_25931" data-name="Path 25931" d="M15.433,169.341l.219.656.692.005a.093.093,0,0,1,.055.168l-.556.411.209.659a.093.093,0,0,1-.143.1l-.563-.4-.563.4a.093.093,0,0,1-.143-.1l.209-.659-.556-.411a.093.093,0,0,1,.055-.168l.692-.005.219-.656A.093.093,0,0,1,15.433,169.341Z" transform="translate(-14.253 -162.412)" fill="#f5f5f5"/>
    <path id="Path_25932" data-name="Path 25932" d="M15.433,200l.219.656.692.005a.093.093,0,0,1,.055.168l-.556.411.209.659a.093.093,0,0,1-.143.1l-.563-.4-.563.4a.093.093,0,0,1-.143-.1l.209-.659-.556-.411a.093.093,0,0,1,.055-.168l.692-.005.219-.656A.093.093,0,0,1,15.433,200Z" transform="translate(-14.253 -189.634)" fill="#f5f5f5"/>
    <path id="Path_25933" data-name="Path 25933" d="M15.433,230.649l.219.656.692.005a.093.093,0,0,1,.055.168l-.556.411.209.659a.093.093,0,0,1-.143.1l-.563-.4-.563.4a.093.093,0,0,1-.143-.1l.209-.659-.556-.411a.093.093,0,0,1,.055-.168l.692-.005.219-.656A.093.093,0,0,1,15.433,230.649Z" transform="translate(-14.253 -216.855)" fill="#f5f5f5"/>
    <path id="Path_25934" data-name="Path 25934" d="M39.226,123.062l.219.656.692.005a.093.093,0,0,1,.055.168l-.556.411.209.659a.093.093,0,0,1-.143.1l-.563-.4-.563.4a.093.093,0,0,1-.143-.1l.209-.659-.556-.411a.093.093,0,0,1,.055-.168l.692-.005.219-.656A.093.093,0,0,1,39.226,123.062Z" transform="translate(-35.381 -121.315)" fill="#f5f5f5"/>
    <path id="Path_25935" data-name="Path 25935" d="M39.226,153.716l.219.656.692.005a.093.093,0,0,1,.055.168l-.556.411.209.659a.093.093,0,0,1-.143.1l-.563-.4-.563.4a.093.093,0,0,1-.143-.1l.209-.659-.556-.411a.093.093,0,0,1,.055-.168l.692-.005.219-.656A.093.093,0,0,1,39.226,153.716Z" transform="translate(-35.381 -148.537)" fill="#f5f5f5"/>
    <path id="Path_25936" data-name="Path 25936" d="M39.226,184.371l.219.656.692.005a.093.093,0,0,1,.055.168l-.556.411.209.659a.093.093,0,0,1-.143.1l-.563-.4-.563.4a.093.093,0,0,1-.143-.1l.209-.659-.556-.411a.093.093,0,0,1,.055-.168l.692-.005.219-.656A.093.093,0,0,1,39.226,184.371Z" transform="translate(-35.381 -175.758)" fill="#f5f5f5"/>
    <path id="Path_25937" data-name="Path 25937" d="M39.226,215.025l.219.656.692.005a.093.093,0,0,1,.055.168l-.556.411.209.659a.093.093,0,0,1-.143.1l-.563-.4-.563.4a.093.093,0,0,1-.143-.1l.209-.659-.556-.411a.093.093,0,0,1,.055-.168l.692-.005.219-.656A.093.093,0,0,1,39.226,215.025Z" transform="translate(-35.381 -202.98)" fill="#f5f5f5"/>
    <path id="Path_25938" data-name="Path 25938" d="M63.019,108.033l.219.656.692.005a.093.093,0,0,1,.055.168l-.556.411.209.659a.093.093,0,0,1-.143.1l-.563-.4-.563.4a.093.093,0,0,1-.143-.1l.209-.659-.556-.411a.093.093,0,0,1,.055-.168l.692-.005.219-.656A.093.093,0,0,1,63.019,108.033Z" transform="translate(-56.51 -107.969)" fill="#f5f5f5"/>
    <path id="Path_25939" data-name="Path 25939" d="M63.019,138.687l.219.656.692.005a.093.093,0,0,1,.055.168l-.556.411.209.659a.093.093,0,0,1-.143.1l-.563-.4-.563.4a.093.093,0,0,1-.143-.1l.209-.659-.556-.411a.093.093,0,0,1,.055-.168l.692-.005.219-.656A.093.093,0,0,1,63.019,138.687Z" transform="translate(-56.51 -135.191)" fill="#f5f5f5"/>
    <path id="Path_25940" data-name="Path 25940" d="M63.019,169.341l.219.656.692.005a.093.093,0,0,1,.055.168l-.556.411.209.659a.093.093,0,0,1-.143.1l-.563-.4-.563.4a.093.093,0,0,1-.143-.1l.209-.659-.556-.411a.093.093,0,0,1,.055-.168l.692-.005.219-.656A.093.093,0,0,1,63.019,169.341Z" transform="translate(-56.51 -162.412)" fill="#f5f5f5"/>
    <path id="Path_25941" data-name="Path 25941" d="M63.019,200l.219.656.692.005a.093.093,0,0,1,.055.168l-.556.411.209.659a.093.093,0,0,1-.143.1l-.563-.4-.563.4a.093.093,0,0,1-.143-.1l.209-.659-.556-.411a.093.093,0,0,1,.055-.168l.692-.005.219-.656A.093.093,0,0,1,63.019,200Z" transform="translate(-56.51 -189.634)" fill="#f5f5f5"/>
    <path id="Path_25942" data-name="Path 25942" d="M63.019,230.649l.219.656.692.005a.093.093,0,0,1,.055.168l-.556.411.209.659a.093.093,0,0,1-.143.1l-.563-.4-.563.4a.093.093,0,0,1-.143-.1l.209-.659-.556-.411a.093.093,0,0,1,.055-.168l.692-.005.219-.656A.093.093,0,0,1,63.019,230.649Z" transform="translate(-56.51 -216.854)" fill="#f5f5f5"/>
    <path id="Path_25943" data-name="Path 25943" d="M86.813,123.062l.219.656.692.005a.093.093,0,0,1,.055.168l-.556.411.209.659a.093.093,0,0,1-.143.1l-.563-.4-.563.4a.093.093,0,0,1-.143-.1l.209-.659-.556-.411a.093.093,0,0,1,.055-.168l.692-.005.219-.656A.093.093,0,0,1,86.813,123.062Z" transform="translate(-77.639 -121.315)" fill="#f5f5f5"/>
    <path id="Path_25944" data-name="Path 25944" d="M86.813,153.716l.219.656.692.005a.093.093,0,0,1,.055.168l-.556.411.209.659a.093.093,0,0,1-.143.1l-.563-.4-.563.4a.093.093,0,0,1-.143-.1l.209-.659-.556-.411a.093.093,0,0,1,.055-.168l.692-.005.219-.656A.093.093,0,0,1,86.813,153.716Z" transform="translate(-77.639 -148.537)" fill="#f5f5f5"/>
    <path id="Path_25945" data-name="Path 25945" d="M86.813,184.371l.219.656.692.005a.093.093,0,0,1,.055.168l-.556.411.209.659a.093.093,0,0,1-.143.1l-.563-.4-.563.4a.093.093,0,0,1-.143-.1l.209-.659-.556-.411a.093.093,0,0,1,.055-.168l.692-.005.219-.656A.093.093,0,0,1,86.813,184.371Z" transform="translate(-77.639 -175.758)" fill="#f5f5f5"/>
    <path id="Path_25946" data-name="Path 25946" d="M86.813,215.025l.219.656.692.005a.093.093,0,0,1,.055.168l-.556.411.209.659a.093.093,0,0,1-.143.1l-.563-.4-.563.4a.093.093,0,0,1-.143-.1l.209-.659-.556-.411a.093.093,0,0,1,.055-.168l.692-.005.219-.656A.093.093,0,0,1,86.813,215.025Z" transform="translate(-77.639 -202.98)" fill="#f5f5f5"/>
    <path id="Path_25947" data-name="Path 25947" d="M110.6,108.033l.219.656.692.005a.093.093,0,0,1,.055.168l-.556.411.209.659a.093.093,0,0,1-.143.1l-.563-.4-.563.4a.093.093,0,0,1-.143-.1l.209-.659-.556-.411a.093.093,0,0,1,.055-.168l.692-.005.219-.656A.093.093,0,0,1,110.6,108.033Z" transform="translate(-98.767 -107.969)" fill="#f5f5f5"/>
    <path id="Path_25948" data-name="Path 25948" d="M110.6,138.687l.219.656.692.005a.093.093,0,0,1,.055.168l-.556.411.209.659a.093.093,0,0,1-.143.1l-.563-.4-.563.4a.093.093,0,0,1-.143-.1l.209-.659-.556-.411a.093.093,0,0,1,.055-.168l.692-.005.219-.656A.093.093,0,0,1,110.6,138.687Z" transform="translate(-98.767 -135.191)" fill="#f5f5f5"/>
    <path id="Path_25949" data-name="Path 25949" d="M110.6,169.341l.219.656.692.005a.093.093,0,0,1,.055.168l-.556.411.209.659a.093.093,0,0,1-.143.1l-.563-.4-.563.4a.093.093,0,0,1-.143-.1l.209-.659-.556-.411a.093.093,0,0,1,.055-.168l.692-.005.219-.656A.093.093,0,0,1,110.6,169.341Z" transform="translate(-98.767 -162.412)" fill="#f5f5f5"/>
    <path id="Path_25950" data-name="Path 25950" d="M110.6,200l.219.656.692.005a.093.093,0,0,1,.055.168l-.556.411.209.659a.093.093,0,0,1-.143.1l-.563-.4-.563.4a.093.093,0,0,1-.143-.1l.209-.659-.556-.411a.093.093,0,0,1,.055-.168l.692-.005.219-.656A.093.093,0,0,1,110.6,200Z" transform="translate(-98.767 -189.634)" fill="#f5f5f5"/>
    <path id="Path_25951" data-name="Path 25951" d="M110.6,230.649l.219.656.692.005a.093.093,0,0,1,.055.168l-.556.411.209.659a.093.093,0,0,1-.143.1l-.563-.4-.563.4a.093.093,0,0,1-.143-.1l.209-.659-.556-.411a.093.093,0,0,1,.055-.168l.692-.005.219-.656A.093.093,0,0,1,110.6,230.649Z" transform="translate(-98.767 -216.854)" fill="#f5f5f5"/>
    <path id="Path_25952" data-name="Path 25952" d="M134.4,123.062l.219.656.692.005a.093.093,0,0,1,.055.168l-.556.411.209.659a.093.093,0,0,1-.143.1l-.563-.4-.563.4a.093.093,0,0,1-.143-.1l.209-.659-.556-.411a.093.093,0,0,1,.055-.168l.692-.005.219-.656A.093.093,0,0,1,134.4,123.062Z" transform="translate(-119.896 -121.315)" fill="#f5f5f5"/>
    <path id="Path_25953" data-name="Path 25953" d="M134.4,153.716l.219.656.692.005a.093.093,0,0,1,.055.168l-.556.411.209.659a.093.093,0,0,1-.143.1l-.563-.4-.563.4a.093.093,0,0,1-.143-.1l.209-.659-.556-.411a.093.093,0,0,1,.055-.168l.692-.005.219-.656A.093.093,0,0,1,134.4,153.716Z" transform="translate(-119.896 -148.537)" fill="#f5f5f5"/>
    <path id="Path_25954" data-name="Path 25954" d="M134.4,184.371l.219.656.692.005a.093.093,0,0,1,.055.168l-.556.411.209.659a.093.093,0,0,1-.143.1l-.563-.4-.563.4a.093.093,0,0,1-.143-.1l.209-.659-.556-.411a.093.093,0,0,1,.055-.168l.692-.005.219-.656A.093.093,0,0,1,134.4,184.371Z" transform="translate(-119.896 -175.758)" fill="#f5f5f5"/>
    <path id="Path_25955" data-name="Path 25955" d="M134.4,215.025l.219.656.692.005a.093.093,0,0,1,.055.168l-.556.411.209.659a.093.093,0,0,1-.143.1l-.563-.4-.563.4a.093.093,0,0,1-.143-.1l.209-.659-.556-.411a.093.093,0,0,1,.055-.168l.692-.005.219-.656A.093.093,0,0,1,134.4,215.025Z" transform="translate(-119.896 -202.98)" fill="#f5f5f5"/>
    <path id="Path_25956" data-name="Path 25956" d="M158.193,108.033l.219.656.692.005a.093.093,0,0,1,.055.168l-.556.411.209.659a.093.093,0,0,1-.143.1l-.563-.4-.563.4a.093.093,0,0,1-.143-.1l.209-.659-.556-.411a.093.093,0,0,1,.055-.168l.692-.005.219-.656A.093.093,0,0,1,158.193,108.033Z" transform="translate(-141.026 -107.969)" fill="#f5f5f5"/>
    <path id="Path_25957" data-name="Path 25957" d="M158.193,138.687l.219.656.692.005a.093.093,0,0,1,.055.168l-.556.411.209.659a.093.093,0,0,1-.143.1l-.563-.4-.563.4a.093.093,0,0,1-.143-.1l.209-.659-.556-.411a.093.093,0,0,1,.055-.168l.692-.005.219-.656A.093.093,0,0,1,158.193,138.687Z" transform="translate(-141.026 -135.191)" fill="#f5f5f5"/>
    <path id="Path_25958" data-name="Path 25958" d="M158.193,169.341l.219.656.692.005a.093.093,0,0,1,.055.168l-.556.411.209.659a.093.093,0,0,1-.143.1l-.563-.4-.563.4a.093.093,0,0,1-.143-.1l.209-.659-.556-.411a.093.093,0,0,1,.055-.168L157.8,170l.219-.656A.093.093,0,0,1,158.193,169.341Z" transform="translate(-141.026 -162.412)" fill="#f5f5f5"/>
    <path id="Path_25959" data-name="Path 25959" d="M158.193,200l.219.656.692.005a.093.093,0,0,1,.055.168l-.556.411.209.659a.093.093,0,0,1-.143.1l-.563-.4-.563.4a.093.093,0,0,1-.143-.1l.209-.659-.556-.411a.093.093,0,0,1,.055-.168l.692-.005.219-.656A.093.093,0,0,1,158.193,200Z" transform="translate(-141.026 -189.634)" fill="#f5f5f5"/>
    <path id="Path_25960" data-name="Path 25960" d="M158.193,230.649l.219.656.692.005a.093.093,0,0,1,.055.168l-.556.411.209.659a.093.093,0,0,1-.143.1l-.563-.4-.563.4a.093.093,0,0,1-.143-.1l.209-.659-.556-.411a.093.093,0,0,1,.055-.168l.692-.005.219-.656A.093.093,0,0,1,158.193,230.649Z" transform="translate(-141.026 -216.854)" fill="#f5f5f5"/>
    <path id="Path_25961" data-name="Path 25961" d="M181.986,123.062l.219.656.692.005a.093.093,0,0,1,.055.168l-.556.411.209.659a.093.093,0,0,1-.143.1l-.563-.4-.563.4a.093.093,0,0,1-.143-.1l.209-.659-.556-.411a.093.093,0,0,1,.055-.168l.692-.005.219-.656A.093.093,0,0,1,181.986,123.062Z" transform="translate(-162.155 -121.315)" fill="#f5f5f5"/>
    <path id="Path_25962" data-name="Path 25962" d="M181.986,153.716l.219.656.692.005a.093.093,0,0,1,.055.168l-.556.411.209.659a.093.093,0,0,1-.143.1l-.563-.4-.563.4a.093.093,0,0,1-.143-.1l.209-.659-.556-.411a.093.093,0,0,1,.055-.168l.692-.005.219-.656A.093.093,0,0,1,181.986,153.716Z" transform="translate(-162.155 -148.537)" fill="#f5f5f5"/>
    <path id="Path_25963" data-name="Path 25963" d="M181.986,184.371l.219.656.692.005a.093.093,0,0,1,.055.168l-.556.411.209.659a.093.093,0,0,1-.143.1l-.563-.4-.563.4a.093.093,0,0,1-.143-.1l.209-.659-.556-.411a.093.093,0,0,1,.055-.168l.692-.005.219-.656A.093.093,0,0,1,181.986,184.371Z" transform="translate(-162.155 -175.758)" fill="#f5f5f5"/>
    <path id="Path_25964" data-name="Path 25964" d="M181.986,215.025l.219.656.692.005a.093.093,0,0,1,.055.168l-.556.411.209.659a.093.093,0,0,1-.143.1l-.563-.4-.563.4a.093.093,0,0,1-.143-.1l.209-.659-.556-.411a.093.093,0,0,1,.055-.168l.692-.005.219-.656A.093.093,0,0,1,181.986,215.025Z" transform="translate(-162.155 -202.98)" fill="#f5f5f5"/>
    <path id="Path_25965" data-name="Path 25965" d="M205.78,108.033l.219.656.692.005a.093.093,0,0,1,.055.168l-.556.411.209.659a.093.093,0,0,1-.143.1l-.563-.4-.563.4a.093.093,0,0,1-.143-.1l.209-.659-.556-.411a.093.093,0,0,1,.055-.168l.692-.005.219-.656A.093.093,0,0,1,205.78,108.033Z" transform="translate(-183.284 -107.969)" fill="#f5f5f5"/>
    <path id="Path_25966" data-name="Path 25966" d="M205.78,138.687l.219.656.692.005a.093.093,0,0,1,.055.168l-.556.411.209.659a.093.093,0,0,1-.143.1l-.563-.4-.563.4a.093.093,0,0,1-.143-.1l.209-.659-.556-.411a.093.093,0,0,1,.055-.168l.692-.005.219-.656A.093.093,0,0,1,205.78,138.687Z" transform="translate(-183.284 -135.191)" fill="#f5f5f5"/>
    <path id="Path_25967" data-name="Path 25967" d="M205.78,169.341,206,170l.692.005a.093.093,0,0,1,.055.168l-.556.411.209.659a.093.093,0,0,1-.143.1l-.563-.4-.563.4a.093.093,0,0,1-.143-.1l.209-.659-.556-.411a.093.093,0,0,1,.055-.168l.692-.005.219-.656A.093.093,0,0,1,205.78,169.341Z" transform="translate(-183.284 -162.412)" fill="#f5f5f5"/>
    <path id="Path_25968" data-name="Path 25968" d="M205.78,200l.219.656.692.005a.093.093,0,0,1,.055.168l-.556.411.209.659a.093.093,0,0,1-.143.1l-.563-.4-.563.4a.093.093,0,0,1-.143-.1l.209-.659-.556-.411a.093.093,0,0,1,.055-.168l.692-.005L205.6,200A.093.093,0,0,1,205.78,200Z" transform="translate(-183.284 -189.634)" fill="#f5f5f5"/>
    <path id="Path_25969" data-name="Path 25969" d="M205.78,230.649l.219.656.692.005a.093.093,0,0,1,.055.168l-.556.411.209.659a.093.093,0,0,1-.143.1l-.563-.4-.563.4a.093.093,0,0,1-.143-.1l.209-.659-.556-.411a.093.093,0,0,1,.055-.168l.692-.005.219-.656A.093.093,0,0,1,205.78,230.649Z" transform="translate(-183.284 -216.854)" fill="#f5f5f5"/>
  </g>
</svg>
